{
    "id": 22,
    "query": "Internet influence on everyday life",
    "description": "social media, advertising, messaging, danger ",
    "relevances": {
        "1967": 1,
        "1680": 0,
        "435": 0,
        "1754": 0,
        "1857": 1,
        "1464": 0,
        "1984": 0,
        "760": 1,
        "1717": 0,
        "1945": 0,
        "581": 0,
        "1949": 0,
        "1753": 0,
        "342": 0,
        "2034": 1,
        "49": 0,
        "944": 0,
        "510": 0,
        "509": 0,
        "1987": 1,
        "1781": 0,
        "526": 0,
        "1568": 0,
        "2136": 0,
        "1082": 0,
        "1377": 0,
        "1460": 0,
        "10": 0,
        "2456": 0,
        "1618": 1,
        "940": 1,
        "989": 0,
        "2204": 0,
        "1255": 0,
        "1474": 0,
        "845": 0,
        "262": 1,
        "1035": 0,
        "700": 0,
        "1146": 0,
        "464": 0,
        "1727": 0,
        "389": 1,
        "2358": 0,
        "1846": 0,
        "889": 1,
        "1517": 0,
        "1062": 0,
        "671": 0,
        "1445": 0,
        "1955": 0,
        "1622": 0
    }
}