{
    "id": 38,
    "query": "google private data",
    "description": "how google handles private data, are there safety concerns?",
    "relevances": {
        "1846": 1,
        "1632": 0,
        "1521": 1,
        "494": 0,
        "1657": 0,
        "2432": 0,
        "1168": 0,
        "1193": 0,
        "2329": 0,
        "979": 0,
        "1756": 0,
        "1528": 0,
        "940": 1,
        "342": 0,
        "2442": 0,
        "2092": 0,
        "1618": 1,
        "1007": 0,
        "2028": 1,
        "101": 1,
        "2234": 1,
        "1622": 1,
        "1762": 1,
        "718": 0,
        "905": 0,
        "1743": 1,
        "869": 0,
        "1841": 1,
        "398": 0,
        "2340": 0,
        "2405": 1,
        "2000": 0,
        "611": 0,
        "607": 0,
        "1476": 0
    }
}