{
    "id": 49,
    "query": "difference suicide rate gender",
    "description": "how do genders differ in suicide rate,statistics, conclusion",
    "relevances": {
        "1912": 0,
        "1641": 1,
        "1628": 1,
        "1994": 0,
        "2125": 0,
        "2317": 0,
        "2147": 0,
        "1982": 0,
        "2064": 0,
        "1055": 0,
        "2291": 0,
        "1963": 0,
        "1397": 0,
        "835": 0,
        "24": 0,
        "1114": 0,
        "1661": 0,
        "919": 0,
        "666": 0,
        "2065": 0,
        "1726": 0,
        "1606": 0,
        "1744": 0,
        "2220": 0,
        "1506": 0,
        "825": 0,
        "1857": 0,
        "2002": 0,
        "2345": 0,
        "2255": 0,
        "1854": 0,
        "2420": 0,
        "1431": 1,
        "1588": 0,
        "1342": 0,
        "2022": 0,
        "2242": 0,
        "2298": 1,
        "2273": 0,
        "2026": 0,
        "1923": 0,
        "792": 0,
        "1613": 0,
        "1918": 0,
        "794": 0,
        "1925": 0,
        "799": 0,
        "2266": 0,
        "1186": 0,
        "1954": 0,
        "2280": 0,
        "2359": 0,
        "1247": 0
    }
}