{
    "id": 45,
    "query": "Marianas Trench",
    "description": "basic information, creatures living there, is it impossible to go there?",
    "relevances": {
        "2224": 0,
        "383": 1,
        "1218": 0,
        "946": 0,
        "2362": 0,
        "570": 0,
        "1364": 0,
        "71": 0,
        "1384": 0,
        "853": 0,
        "2301": 0,
        "2126": 0,
        "95": 0,
        "2280": 0,
        "798": 0,
        "1311": 0,
        "22": 0,
        "781": 0,
        "749": 0,
        "1086": 0,
        "1560": 0,
        "1096": 0,
        "769": 0,
        "2066": 0,
        "670": 0,
        "107": 0,
        "1807": 0,
        "2073": 0,
        "1646": 0,
        "656": 0,
        "2042": 1,
        "2376": 0,
        "651": 0,
        "1765": 0,
        "1368": 0,
        "720": 0,
        "2025": 0,
        "225": 0,
        "709": 0,
        "227": 1
    }
}